{
  "page": 1,
  "per_page": 1,
  "photos": [
    {
      "id": 2706750,
      "width": 6240,
      "height": 4160,
      "url": "https://www.pexels.com/photo/union-station-building-2706750/",
      "photographer": "Thomas Ward",
      "photographer_url": "https://www.pexels.com/@thomasleeward",
      "photographer_id": 220769,
      "avg_color": "#777272",
      "src": {
        "original": "https://images.pexels.com/photos/2706750/pexels-photo-2706750.jpeg",
        "large2x": "https://images.pexels.com/photos/2706750/pexels-photo-2706750.jpeg?auto=compress&cs=tinysrgb&dpr=2&h=650&w=940",
        "large": "https://images.pexels.com/photos/2706750/pexels-photo-2706750.jpeg?auto=compress&cs=tinysrgb&h=650&w=940",
        "medium": "https://images.pexels.com/photos/2706750/pexels-photo-2706750.jpeg?auto=compress&cs=tinysrgb&h=350",
        "small": "https://images.pexels.com/photos/2706750/pexels-photo-2706750.jpeg?auto=compress&cs=tinysrgb&h=130",
        "portrait": "https://images.pexels.com/photos/2706750/pexels-photo-2706750.jpeg?auto=compress&cs=tinysrgb&fit=crop&h=1200&w=800",
        "landscape": "https://images.pexels.com/photos/2706750/pexels-photo-2706750.jpeg?auto=compress&cs=tinysrgb&fit=crop&h=627&w=1200",
        "tiny": "https://images.pexels.com/photos/2706750/pexels-photo-2706750.jpeg?auto=compress&cs=tinysrgb&dpr=1&fit=crop&h=200&w=280"
      },
      "liked": false
    }
  ],
  "total_results": 42,
  "next_page": "https://api.pexels.com/v1/search/?orientation=landscape&page=2&per_page=1&query=denver"
}